<?xml version="1.0" encoding="utf-8"?>
<!-- Generator: Adobe Illustrator 19.2.1, SVG Export Plug-In . SVG Version: 6.00 Build 0)  -->
<svg version="1.1" id="Layer_1" xmlns="http://www.w3.org/2000/svg" xmlns:xlink="http://www.w3.org/1999/xlink" x="0px" y="0px"
	 viewBox="0 0 215.2 12" style="enable-background:new 0 0 215.2 12;" xml:space="preserve">
<style type="text/css">
	.st0{fill:none;stroke:#EE4034;stroke-width:3;}
</style>
<path class="st0" d="M0,2c7.7,0,7.7,8,15.3,8C23,10,23,2,30.7,2c7.7,0,7.7,8,15.3,8s7.7-8,15.3-8c7.7,0,7.7,8,15.3,8
	c7.7,0,7.7-8,15.3-8c7.7,0,7.7,8,15.3,8c7.7,0,7.7-8,15.4-8c7.7,0,7.7,8,15.4,8c7.7,0,7.7-8,15.4-8c7.7,0,7.7,8,15.3,8
	c7.7,0,7.7-8,15.3-8c7.7,0,7.7,8,15.4,8c7.7,0,7.7-8,15.4-8s7.7,8,15.4,8"/>
</svg>
