<?xml version="1.0" encoding="utf-8"?>
<!-- Generator: Adobe Illustrator 23.0.3, SVG Export Plug-In . SVG Version: 6.00 Build 0)  -->
<svg version="1.1" id="Layer_1" xmlns="http://www.w3.org/2000/svg" xmlns:xlink="http://www.w3.org/1999/xlink" x="0px" y="0px"
	 viewBox="0 0 15 10" style="enable-background:new 0 0 15 10;" xml:space="preserve">
<style type="text/css">
	.st0{fill:#2A81BA;}
</style>
<path class="st0" d="M15,9.9c-2.34,0-3.58-1.33-4.58-2.4C9.54,6.58,8.91,5.9,7.5,5.9c-1.41,0-2.04,0.67-2.92,1.6
	C3.58,8.58,2.34,9.9,0,9.9v-4c1.41,0,2.04-0.67,2.92-1.6c1-1.07,2.25-2.4,4.58-2.4s3.58,1.33,4.58,2.4c0.87,0.93,1.5,1.6,2.92,1.6
	V9.9z"/>
</svg>
