<svg version="1.1" xmlns="http://www.w3.org/2000/svg" onload="ready()">
	<filter id="sepia">
	<feColorMatrix values="0.14 0.45 0.05 0 0
						   0.12 0.39 0.04 0 0
						   0.08 0.28 0.03 0 0
						   0 0 0 1 0" />
	</filter>
</svg>
